com/dks/authentication/entity/RoleEntity$RoleEntityBuilder.class
com/dks/authentication/service/UserInfoUserDetails$UserInfoUserDetailsBuilder.class
com/dks/authentication/model/RegisterRequest$RegisterRequestBuilder.class
com/dks/authentication/repository/RoleRepository.class
com/dks/authentication/jwt/AuthTokenFilter.class
com/dks/authentication/entity/UserDetailsEntity$UserDetailsEntityBuilder.class
com/dks/authentication/entity/UserEntity.class
com/dks/authentication/controller/UserController.class
com/dks/authentication/model/LoginRequest.class
com/dks/authentication/entity/RoleEntity.class
com/dks/authentication/controller/AuthController.class
com/dks/authentication/entity/UserEntity$UserEntityBuilder.class
com/dks/authentication/jwt/AuthEntryPointJwt.class
com/dks/authentication/config/SecurityConfig.class
com/dks/authentication/model/Role.class
com/dks/authentication/jwt/JwtUtils.class
com/dks/authentication/service/UserServiceImpl.class
com/dks/authentication/model/UserRequest$UserRequestBuilder.class
com/dks/authentication/model/JwtResponse$JwtResponseBuilder.class
com/dks/authentication/model/UserResponse$UserResponseBuilder.class
com/dks/authentication/service/UserInfoUserDetailsService.class
com/dks/authentication/constant/StringConstants.class
com/dks/authentication/controller/TestAdminController.class
com/dks/authentication/AuthServiceApplication.class
com/dks/authentication/repository/UserRepository.class
com/dks/authentication/model/RegisterRequest.class
com/dks/authentication/service/UserInfoUserDetails.class
com/dks/authentication/model/LoginRequest$LoginRequestBuilder.class
com/dks/authentication/model/UserRequest.class
com/dks/authentication/repository/UserDetailsRepository.class
com/dks/authentication/entity/UserDetailsEntity.class
com/dks/authentication/model/JwtResponse.class
com/dks/authentication/http/HeaderGenerator.class
com/dks/authentication/service/UserService.class
com/dks/authentication/model/UserResponse.class
